[
    {
        "skill": "capture_usbl",
        "modes": {
            "M_TIMEDOUT": "FAILED"
        }
    },
    {
        "skill": "move_on_surface",
        "modes": {
            "M_ABORTED": "INTERRUPTED"
        }
    },
    {
        "skill": "move",
        "modes": {
            "M_ABORTED": "INTERRUPTED"
        }
    },
    {
        "skill": "transect",
        "modes": {
            "M_ABORTED": "INTERRUPTED"
        }
    },
    {
        "resource": "robot_status",
        "states": [
            "ON_SURFACE",
            "IN_WATER",
            "SHUT_DOWN",
            "COLLISION"
        ]
    },
    {
        "resource": "energy",
        "states": [
            "NOMINAL",
            "LOW"
        ]
    },
    {
        "resource": "video_camera",
        "states": [
            "ON",
            "OFF",
            "OUT_OF_SERVICE"
        ]
    },
    {
        "resource": "usbl_status",
        "states": [
            "UNINITIALIZED",
            "CAPTURED",
            "NOT_CAPTURED"
        ]
    },
    {
        "resource": "gps_status",
        "states": [
            "UNINITIALIZED",
            "CAPTURED",
            "NOT_CAPTURED"
        ]
    },
    {
        "resource": "localization_precision",
        "states": [
            "UNINITIALIZED",
            "GOOD",
            "LOW",
            "CRITICAL"
        ]
    },
    {
        "resource": "actuators",
        "states": [
            "OK",
            "ERROR"
        ]
    },
    {
        "resource": "motors",
        "states": [
            "OK",
            "ERROR"
        ]
    },
    {
        "resource": "sw_mods",
        "states": [
            "OK",
            "ERROR"
        ]
    }
]